<?xml version="1.0" encoding="UTF-8" standalone="no"?>
<svg
   width="104.48675"
   height="19.185818"
   viewBox="0 0 104.48675 19.185818"
   version="1.1"
   id="svg14"
   sodipodi:docname="Nolo_logo_horizontal_transparent_white.svg"
   inkscape:version="1.3.1 (91b66b0783, 2023-11-16, custom)"
   xmlns:inkscape="http://www.inkscape.org/namespaces/inkscape"
   xmlns:sodipodi="http://sodipodi.sourceforge.net/DTD/sodipodi-0.dtd"
   xmlns="http://www.w3.org/2000/svg"
   xmlns:svg="http://www.w3.org/2000/svg">
  <sodipodi:namedview
     id="namedview14"
     pagecolor="#505050"
     bordercolor="#eeeeee"
     borderopacity="1"
     inkscape:showpageshadow="0"
     inkscape:pageopacity="0"
     inkscape:pagecheckerboard="0"
     inkscape:deskcolor="#d1d1d1"
     inkscape:zoom="11.659574"
     inkscape:cx="48.458031"
     inkscape:cy="13.465329"
     inkscape:window-width="3440"
     inkscape:window-height="1374"
     inkscape:window-x="0"
     inkscape:window-y="0"
     inkscape:window-maximized="1"
     inkscape:current-layer="svg14" />
  <defs
     id="defs1">
    <polygon
       id="path-1"
       points="19.699234,0.16309091 19.699234,18.062636 0.37047516,18.062636 0.37047516,0.16309091 " />
  </defs>
  <g
     id="g2"
     inkscape:label="Scale"
     style="fill:#ffffff">
    <polygon
       fill="#231f20"
       points="35.376049,5.6165909 58.043047,0.89977273 58.040032,1.8961364 35.384233,6.7275 "
       id="polygon9"
       style="fill:#ffffff;fill-opacity:1;fill-rule:evenodd;stroke:none;stroke-width:1"
       transform="translate(-34.09534,-0.149455)" />
    <path
       d="m 16.543114,13.489863 c 0.851132,-1.884091 2.787286,-6.1381816 3.454495,-7.606818 0.666777,1.4686364 2.599054,5.722727 3.455786,7.606818 z m 8.301555,0 -4.84706,-10.6613634 -0.570294,1.2513636 -4.273752,9.4099998 h -0.269209 c 0,1.367728 2.311754,2.476818 5.155897,2.476818 2.842851,0 5.154606,-1.10909 5.154606,-2.476818 z"
       fill="#231f20"
       id="path9"
       style="fill:#ffffff;fill-opacity:1;fill-rule:evenodd;stroke:none;stroke-width:1" />
    <path
       d="M 1.659627,16.706727 C 2.516789,14.823545 4.450358,10.570818 5.114121,9.1058177 5.779607,10.570818 7.714899,14.823545 8.569477,16.706727 Z m 8.300263,0 L 5.114121,6.0449086 4.546843,7.2958177 0.271798,16.706727 H 5e-6 c 0,1.371818 2.312616,2.479091 5.155036,2.479091 2.847158,0 5.154605,-1.107273 5.154605,-2.479091 z"
       fill="#231f20"
       id="path10"
       style="fill:#ffffff;fill-opacity:1;fill-rule:evenodd;stroke:none;stroke-width:1" />
    <path
       d="m 13.639659,1.0413632 c 0,0.5777272 -0.451411,1.0431818 -1.00792,1.0431818 -0.554356,0 -1.005336,-0.4654546 -1.005336,-1.0431818 0,-0.5768182 0.45098,-1.04136366 1.005336,-1.04136366 0.556509,0 1.00792,0.46454546 1.00792,1.04136366"
       fill="#231f20"
       id="path11"
       style="fill:#ffffff;fill-opacity:1;fill-rule:evenodd;stroke:none;stroke-width:1" />
  </g>
  <g
     id="g1"
     inkscape:label="Nolo"
     style="fill:#ffffff">
    <path
       d="m 94.8356,4.5536359 c -3.21716,0 -5.34542,2.1222727 -5.34542,5.3190911 0,3.195909 2.12826,5.318636 5.34542,5.318636 3.19261,0 5.3213,-2.122727 5.3213,-5.318636 0,-3.1968184 -2.12869,-5.3190911 -5.3213,-5.3190911 m 0,14.2686361 c -6.18664,0 -9.67646,-4.500454 -9.67646,-8.949545 0,-4.2195456 3.31623,-8.9500002 9.67646,-8.9500002 6.36067,0 9.65234,4.7563636 9.65234,8.9500002 0,4.474545 -3.58888,8.949545 -9.65234,8.949545"
       fill="#231f20"
       id="path1"
       style="fill:#ffffff;fill-opacity:1;fill-rule:evenodd;stroke:none;stroke-width:1"
       inkscape:label="O" />
    <polygon
       fill="#231f20"
       points="109.72651,15.545273 118.38816,15.545273 118.38816,18.741636 105.51909,18.741636 105.51909,1.3020909 109.72651,1.3020909 "
       id="polygon8"
       style="fill:#ffffff;fill-opacity:1;fill-rule:evenodd;stroke:none;stroke-width:1"
       inkscape:label="L"
       transform="translate(-34.09534,-0.149455)" />
    <path
       d="m 59.495662,4.5536359 c -3.217159,0 -5.345421,2.1222727 -5.345421,5.3190911 0,3.195909 2.128262,5.318636 5.345421,5.318636 3.192608,0 5.3213,-2.122727 5.3213,-5.318636 0,-3.1968184 -2.128692,-5.3190911 -5.3213,-5.3190911 m 0,14.2686361 c -6.186646,0 -9.676461,-4.500454 -9.676461,-8.949545 0,-4.2195456 3.316228,-8.9500002 9.676461,-8.9500002 6.360664,0 9.652338,4.7563636 9.652338,8.9500002 0,4.474545 -3.588881,8.949545 -9.652338,8.949545"
       fill="#231f20"
       id="path8"
       style="fill:#ffffff;fill-opacity:1;fill-rule:evenodd;stroke:none;stroke-width:1"
       inkscape:label="O" />
    <polygon
       fill="#231f20"
       points="81.614158,18.741636 78.075239,18.741636 68.744658,7.5670909 68.744658,18.741636 64.537669,18.741636 64.537669,1.3020909 68.398347,1.3020909 77.406738,11.965273 77.406738,1.3020909 81.614158,1.3020909 "
       id="polygon7"
       style="fill:#ffffff;fill-opacity:1;fill-rule:evenodd;stroke:none;stroke-width:1"
       inkscape:label="N"
       transform="translate(-34.09534,-0.149455)" />
  </g>
</svg>
